<svg xmlns="http://www.w3.org/2000/svg" width="17.277" height="18.848" viewBox="0 0 17.277 18.848">
  <path id="play" d="M5.785,3A.785.785,0,0,0,5,3.785s0,0,0,0V21.059s0,0,0,0a.784.784,0,0,0,1.241.638l0,0,15.576-8.565A.785.785,0,0,0,21.8,11.7L6.242,3.146h0A.785.785,0,0,0,5.785,3Z" transform="translate(-5 -3)" fill="#fff"/>
</svg>
